2020/2/23,13:58:18, ,32.5,30.1,31.2,33.3,1988,2125,2005,1920,2055,1903,1967,2093,103.1,102.5,102.3,103,102.8,103.3,102,102.9,198.8,211.5,198.2,192.4,202.5,188.8,194.7,209.8,0
,,,,,,,,,,,,,,,,,,,,,,,,,,,,,,,
,,,,,,,,,,,,,,,,,,,,,,,,,,,,,,,
,,,,,,,,,,,,,,,,,,,,,,,,,,,,,,,
